counter,file,gt x,gt y,gt z,gt yaw,gt pitch,gt roll,net x,net y,net z,net yaw,net pitch,net roll,diff x,diff y,diff z,diff yaw,diff pitch,diff roll,diff abs x,diff abs y,diff abs z,diff abs yaw,diff abs pitch,diff abs roll,mae translation,\rangeNetFive,messing mae translation,messing mae rotation
3640.0900000000001,/lhome/fpiewak/datasets/kitti/2011_09_26/2011_09_26_drive_0070_sync/image_02/data/0000000341.png,0.0065026790237544211,0.0063616356976240731,0.0007525910769473151,0.014552986076309117,0.053593479433193141,-0.0097018393089188162,-0.04691261790214702,-0.041196292216586779,0.028589289407588959,0.052625662666097382,0.065330169778210281,-0.033186490335485687,-0.053415296925901454,-0.047557927914210853,0.027836698330641643,0.03807267658978826,0.011736690345017141,-0.023484651026566859,0.066328340040833864,0.057021229767123739,0.033403961030351481,0.22278508594637031,0.056572729173530782,0.066591626532725295,0.052251176946103026,0.11531648055087544,0.055770257096615532,0.35048098503821573
3585.1466666666665,/lhome/fpiewak/datasets/kitti/2011_09_26/2011_09_26_drive_0070_sync/image_02/data/0000000401.png,0.0025593661694585982,0.00069773760385074895,0.0044571344981954196,-0.0086599384273534953,0.070390204646563606,0.010515837495202754,-0.045213595439521775,-0.048115438411297257,0.031805210804648057,0.015774420032109972,0.063411237857645589,0.0088031883862935874,-0.047772961608980369,-0.048813176015148008,0.02734807630645264,0.024434358459463467,-0.0069789667889180243,-0.0017126491089091678,0.067801761133475483,0.062881356959194876,0.040741262621943893,0.25873816493121865,0.069766691226284247,0.077694735588404437,0.05714146023820476,0.13539986391530243,0.06584803388274052,0.58812697149629023
3288.1933333333332,/lhome/fpiewak/datasets/kitti/2011_09_26/2011_09_26_drive_0070_sync/image_02/data/0000000341.png,0.016498978209680298,-0.0051097149656351617,0.0052233301959115882,-0.028776649924136515,0.046206449042920636,0.024984457280507587,-0.044160238811413094,-0.049678369061210211,0.041938934654282618,0.033588926169136647,0.026265229145584434,0.046927151068842127,-0.060659217021093392,-0.044568654095575061,0.036715604458371028,0.06236557609327318,-0.019941219897336208,0.021942693788334539,0.09864700046095079,0.083050236784034934,0.061813592882685266,0.35253699351404022,0.15442938842799148,0.15287460383612261,0.081170276709223665,0.21994699525938483,0.094345272882936496,0.83275310162103078
3022.9133333333334,/lhome/fpiewak/datasets/kitti/2011_09_26/2011_09_26_drive_0005_sync/image_02/data/0000000096.png,0.020285710704301824,0.018900568912778089,0.0012815263993931484,-0.058181989643769846,0.12277733415987399,-0.0069623469106659171,-0.042381462195070052,-0.049898400556265765,0.062661020634903183,0.056941065020978621,0.043855046931274316,0.10779190605749128,-0.062667172899371876,-0.068798969469043861,0.061379494235510042,0.11512305466474847,-0.078922287228599688,0.11475425296815717,0.13488899058414811,0.13084308684709384,0.10980960943966446,0.61598534728020415,0.36292564289174822,0.46549447390342702,0.12518056229030214,0.48146848802512648,0.13849364055444544,1.2723305096048918
2519.4299999999998,/lhome/fpiewak/datasets/kitti/2011_09_26/2011_09_26_drive_0070_sync/image_02/data/0000000099.png,0.040532767993691002,0.01884831624843154,0.012229045137964753,0.042846836066521996,0.20040706883906068,-0.029141724531939618,-0.046561220043453609,-0.046193818906250746,0.096682102427722641,0.095973856208849434,-0.029529378306782376,0.18568433993642036,-0.08709398803714459,-0.065042135154682296,0.084453057289757869,0.05312702014232748,-0.2299364471458431,0.21482606446836003,0.28446574391285689,0.24637816529855394,0.24474816091494958,1.7248626004182677,1.0864391755832663,0.9918785369134252,0.25853069004212015,1.2677267709716531,0.26970922051941293,2.0156135479979791
2268.04,/lhome/fpiewak/datasets/kitti/2011_09_26/2011_09_26_drive_0070_sync/image_02/data/0000000146.png,-0.0034706337935576786,0.038971093994189458,0.0078563489647995137,0.068180191678637758,0.35123617069504848,-0.046897559273561727,-0.040746975168669951,-0.039247181611409589,0.12417958506665906,0.1688677983725291,-0.036073350456957635,0.28390282464422917,-0.037276341375112279,-0.078218275605599061,0.11632323610185955,0.10068760669389139,-0.38730952115200606,0.33080038391779093,0.34853839932004804,0.35417528872582521,0.3441509159740852,2.6067481039783509,1.8720386318986562,2.1574489014778049,0.34895486800665282,2.2120785457849372,0.36000227678110214,3.0229134164398528
1950.3133333333333,/lhome/fpiewak/datasets/kitti/2011_09_26/2011_09_26_drive_0070_sync/image_02/data/0000000332.png,0.089857390745794394,0.060209650614732636,-0.012354686815277308,-0.057438893220035314,0.18027901358779366,-0.10811984289966541,-0.050160516597922207,-0.040001598470518832,0.13388915648422103,0.28139888097893156,-0.078094155617398062,0.27701515463733095,-0.14001790734371661,-0.10021124908525145,0.14624384329949833,0.33883777419896699,-0.25837316920519182,0.38513499753699632,0.47999476916437911,0.45483722571363405,0.48251129565389361,4.1358359467930654,2.9568614013226919,2.8675713620665042,0.47244776351063567,3.320089570060754,0.46289480924041715,4.0221948999298851
1545.4966666666667,/lhome/fpiewak/datasets/kitti/2011_09_26/2011_09_26_drive_0070_sync/image_02/data/0000000301.png,0.021386463382415542,0.025286419141101607,-0.0084327204048242951,0.15474948055664489,0.50437977290425973,0.03240166158214175,-0.050658223064818222,-0.053686995452012339,0.12851757526084623,0.24640122498096276,-0.13627440742022015,0.31867046482796479,-0.072044686447233733,-0.078973414593113939,0.13695029566567055,0.091651744424317852,-0.64065418032447985,0.28626880324582288,0.60515065845565985,0.60115679340063988,0.59618101188208816,5.424402142012104,4.4641381614379592,4.2591095381168467,0.60082948791279589,4.715883280522303,0.59720433238691495,5.3431731996660607
1449.8800000000001,/lhome/fpiewak/datasets/kitti/2011_09_26/2011_09_26_drive_0070_sync/image_02/data/0000000241.png,0.021430619829562837,0.023332210429195713,0.0068997668690996506,-0.16350810618480177,1.1750315201683237,0.26912238320750809,-0.044245321792661392,-0.074497327017519321,0.12685581277073391,0.31778516996374606,-0.040728650837108603,0.4201441371249155,-0.065675941622224218,-0.09782953744671502,0.11995604590163426,0.48129327614854789,-1.2157601710054322,0.15102175391740735,0.64515506337421258,0.65632840337644671,0.6041058241984909,6.8091184959908055,5.4502898986209525,6.0455316285444205,0.63519643031638329,6.1016466743853925,0.62897389025240713,6.651619288210548
1180.8066666666666,/lhome/fpiewak/datasets/kitti/2011_09_26/2011_09_26_drive_0070_sync/image_02/data/0000000177.png,0.054504836938540559,0.0081941109459354126,-0.016653877032697141,0.40820975472274945,0.26874866067991976,0.019582199290866621,-0.067563373346991723,-0.051909964914977222,0.10244095550557554,0.2872212640563841,-0.27117058917968084,0.30113232129159351,-0.12206821028553226,-0.060104075860912626,0.11909483253827266,-0.12098849066636537,-0.53991924985960071,0.28155012200072688,0.66275257614925487,0.71278398347114258,0.69974212478648379,8.066889256462531,7.2097425788425271,7.2215860558718763,0.69175956146896045,7.4994059637256454,0.68163164300907941,8.0070927968453418
945.51999999999998,/lhome/fpiewak/datasets/kitti/2011_09_26/2011_09_26_drive_0005_sync/image_02/data/0000000010.png,0.089951278763999956,-0.02729024157609538,0.011085028756859275,-0.84068915783640075,1.5437844283458984,0.57269816806814755,-0.065832422150864503,-0.063888005463951153,0.079165971716584529,0.27421427741175219,-0.14014783010006651,0.39237341585045393,-0.15578370091486449,-0.03659776388785576,0.068080942959725277,1.1149034352481531,-1.6839322584459648,-0.18032475221769348,0.77242758616686202,0.75614136089873019,0.71610502473337234,9.9467634950387787,8.8342747230520633,8.8400941336836247,0.74822465726632159,9.2070441172581567,0.74385832939776553,9.6016150093750667
792.30666666666662,/lhome/fpiewak/datasets/kitti/2011_09_26/2011_09_26_drive_0070_sync/image_02/data/0000000371.png,0.056677111388033802,-0.028626160669890755,-0.0036251829752513014,-0.93973602085079522,-0.051338725822490543,0.71829868163450517,-0.09147870114621047,-0.055064445357257484,0.05035072246610673,0.2682086595171303,-0.25692125198381888,0.31458290508175035,-0.14815581253424426,-0.026438284687366732,0.053975905441358045,1.2079446803679257,-0.20558252616132847,-0.40371577655275476,0.73670638331726401,0.7903369017002897,0.77580542922836671,11.766365703421286,11.27661988018175,10.730606003354511,0.76761623808197355,11.257863862319182,0.7561377661769747,11.625417489050054
582.11333333333334,/lhome/fpiewak/datasets/kitti/2011_09_26/2011_09_26_drive_0070_sync/image_02/data/0000000172.png,0.016040918256260632,0.0075478823250119771,0.051411056313061615,-0.97093267619504253,0.72351462543768275,0.65744816965733299,-0.1021573666347817,-0.054179945771340159,0.023599436060792602,0.29001589510546866,-0.23529552757768007,0.35833448466184448,-0.11819828489104232,-0.06172782809635214,-0.027811620252269,1.2609485713005115,-0.95881015301536265,-0.2991136849954889,0.78562127547940674,0.86031511040401598,0.80168168048389288,14.081739916574858,14.010237835197415,15.029958927778468,0.81587268878910535,14.373978893183581,0.80576189201455939,14.630291811552343
365.22033898305085,/lhome/fpiewak/datasets/kitti/2011_09_26/2011_09_26_drive_0070_sync/image_02/data/0000000329.png,0.01751139419416858,-0.044002558495629673,0.024467497318363896,-2.303957273370171,-3.5087941959080076,-0.88367773220718926,-0.1153301221730671,-0.034402288601604859,0.010413438187060694,0.25052847575874493,-0.31557376045301438,0.38734197079485111,-0.13284151636723568,0.0096002698940248175,-0.014054059131303222,2.5544857491289155,3.1932204354549936,1.27101970300204,0.80644914467206685,0.88022581650895249,0.86206359826627721,18.737247828597138,17.87841754958805,19.445752586726655,0.8495795198157654,18.687139321637282,0.82592532953105757,18.906307994360795
